<?xml version="1.0" encoding="iso-8859-1"?>
<!-- Generator: Adobe Illustrator 19.0.0, SVG Export Plug-In . SVG Version: 6.00 Build 0)  -->
<svg version="1.1" id="Capa_1" xmlns="http://www.w3.org/2000/svg" xmlns:xlink="http://www.w3.org/1999/xlink" x="0px" y="0px"
	 viewBox="0 0 512 512" style="enable-background:new 0 0 512 512;" xml:space="preserve">
<circle style="fill:#FFCCCF;" cx="256" cy="256" r="256"/>
<path style="fill:#FFB3B7;" d="M342.71,425.29c-141.385,0-256-114.615-256-256c0-48.466,13.475-93.781,36.873-132.417
	C49.509,81.731,0,163.081,0,256c0,141.385,114.615,256,256,256c92.919,0,174.268-49.51,219.127-123.583
	C436.491,411.815,391.175,425.29,342.71,425.29z"/>
<circle style="fill:#FF979D;" cx="256" cy="256" r="214.71"/>
<path style="fill:#F57E85;" d="M41.29,256c0,118.581,96.129,214.71,214.71,214.71c52.799,0,101.117-19.093,138.511-50.706
	c-16.733,3.441-34.049,5.286-51.801,5.286c-141.385,0-256-114.615-256-256c0-17.752,1.845-35.068,5.286-51.801
	C60.383,154.882,41.29,203.2,41.29,256z"/>
<g>
	<path style="fill:#E6646E;" d="M212.448,212.448c-54.455-54.455-146.722-8.565-136.514,67.766
		c5.099,38.129,22.299,74.949,51.601,104.251c30.453,30.453,69.028,47.835,108.752,52.146c74.376,8.071,116.295-84.03,63.394-136.93
		L212.448,212.448z"/>
	<path style="fill:#E6646E;" d="M212.319,212.319c-52.901-52.901-10.982-145.001,63.394-136.93
		c39.724,4.311,78.299,21.693,108.752,52.146s47.835,69.028,52.146,108.752c8.071,74.376-84.03,116.295-136.93,63.394
		L212.319,212.319z"/>
</g>
<g>
	<circle style="fill:#DC4655;" cx="209.28" cy="302.71" r="33.03"/>
	<circle style="fill:#DC4655;" cx="302.71" cy="209.28" r="33.03"/>
	<path style="fill:#DC4655;" d="M91.78,220.148c-12.327,15.723-19.007,36.429-15.846,60.066
		c5.099,38.129,22.299,74.949,51.601,104.251c30.453,30.453,69.028,47.835,108.752,52.146c22.401,2.431,41.823-4.265,56.632-16.2
		C191.836,400.48,112.126,321.08,91.78,220.148z"/>
</g>
<g>
</g>
<g>
</g>
<g>
</g>
<g>
</g>
<g>
</g>
<g>
</g>
<g>
</g>
<g>
</g>
<g>
</g>
<g>
</g>
<g>
</g>
<g>
</g>
<g>
</g>
<g>
</g>
<g>
</g>
</svg>
